…
    # Make clone objects with aligned, processed sequences
    # collapse identical sequences unless differ by trait
    # add up duplicate_count column for collapsed sequences
    # store day, isotype, gex_annotation
    # discard clones with < 5 distinct sequences
    clones <- formatClones(results_db,
                           traits = c("day", "isotype", "gex_annotation"),
                           num_fields = c("duplicate_count"), minseq = 7)
    clones

    ## # A tibble: 25 x 4
    ##    clone_id data       locus  seqs
    ##    <chr>    <list>     <chr> <int>
    ##  1 403      <airrClon> IGH      16
    ##  2 457      <airrClon> IGH      15
    ##  3 512      <airrClon> IGH      15
    ##  4 823      <airrClon> IGH      15
    ##  5 12       <airrClon> IGH      13
    ##  6 539      <airrClon> IGH      13
    ##  7 446      <airrClon> IGH      12
    ##  8 1006     <airrClon> IGH       9
    ##  9 1125     <airrClon> IGH       9
    ## 10 442      <airrClon> IGH       9
    ## # i 15 more rows
…
